Mon May 24 12:34:35 EDT 2021
Py:Athena            INFO including file "AthenaCommon/Preparation.py"
Py:Athena            INFO using release [?-22.0.0] [?] [?/?] -- built on [?]
Py:Athena            INFO including file "AthenaCommon/Atlas.UnixStandardJob.py"
Py:Athena            INFO executing ROOT6Setup
Py:Athena            INFO configuring AthenaHive with [1] concurrent threads and [1] concurrent events
Py:AlgScheduler      INFO setting up AvalancheSchedulerSvc/AvalancheSchedulerSvc with 1 threads
Py:Athena            INFO including file "AthenaCommon/Execution.py"
Py:Athena            INFO including file "/ssd/sss/atlas/dvtest/../share/xAODTestDecorHandle1MT_jo.py"
Py:Athena            INFO including file "DataModelRunTests/xAODTestDecorHandle1_jo.py"
Py:Athena            INFO including file "DataModelRunTests/commonTrailer.py"
Py:Athena            INFO including file "DataModelRunTests/setCatalog.py"
Py:Athena            INFO including file "AthenaCommon/runbatch.py"
Py:ConfigurableDb    INFO Read module info for 993 configurables from 2 genConfDb files
Py:ConfigurableDb    INFO No duplicates have been found: that's good !
# setting LC_ALL to "C"
MessageSvc           INFO Activating in a separate thread
ApplicationMgr    SUCCESS 
====================================================================================================================================
                                                   Welcome to ApplicationMgr (GaudiCoreSvc v27r1p99)
                                          running on karma on Mon May 24 12:35:37 2021
====================================================================================================================================
ApplicationMgr       INFO Application Manager Configured successfully
AthDictLoaderSvc                                                  INFO in initialize...
AthDictLoaderSvc                                                  INFO acquired Dso-registry
ClassIDSvc                                                        INFO  getRegistryEntries: read 3146 CLIDRegistry entries for module ALL
CoreDumpSvc                                                       INFO Handling signals: 11(Segmentation fault) 7(Bus error) 4(Illegal instruction) 8(Floating point exception) 
AthenaHiveEventLoopMgr                                            INFO Initializing AthenaHiveEventLoopMgr
ClassIDSvc                                                   0    INFO  getRegistryEntries: read 1273 CLIDRegistry entries for module ALL
ClassIDSvc                                                   0    INFO  getRegistryEntries: read 1880 CLIDRegistry entries for module ALL
ClassIDSvc                                                   0    INFO  getRegistryEntries: read 8082 CLIDRegistry entries for module ALL
xAODMaker::EventInfoCnvAlg                                   0    INFO Initializing xAODMaker::EventInfoCnvAlg
xAODMaker::EventInfoCnvAlg.EventInfoCnvTool                  0    INFO Beam conditions service not available
xAODMaker::EventInfoCnvAlg.EventInfoCnvTool                  0    INFO Will not fill beam spot information into xAOD::EventInfo
ThreadPoolSvc                                                0    INFO no thread init tools attached
AvalancheSchedulerSvc                                        0    INFO Activating scheduler in a separate thread
AvalancheSchedulerSvc                                        0    INFO Found 15 algorithms
AvalancheSchedulerSvc                                        0    INFO Data Dependencies for Algorithms:
  BeginIncFiringAlg
      none
  IncidentProcAlg1
      none
  xAODMaker::EventInfoCnvAlg
    o INPUT   ( 'EventInfo' , 'StoreGateSvc+McEventInfo' ) 
    o OUTPUT  ( 'SG::AuxElement' , 'StoreGateSvc+EventInfo' ) 
    o OUTPUT  ( 'SG::AuxVectorBase' , 'StoreGateSvc+PileupEventInfo' ) 
    o OUTPUT  ( 'xAOD::EventInfo' , 'StoreGateSvc+EventInfo' ) 
    o OUTPUT  ( 'xAOD::EventInfoContainer' , 'StoreGateSvc+PileupEventInfo' ) 
  SGInputLoader
      none
  xAODTestWriteCVec
    o OUTPUT  ( 'DMTest::CVec' , 'StoreGateSvc+cvec' ) 
    o OUTPUT  ( 'DMTest::CVec' , 'StoreGateSvc+cvec.dtest' ) 
    o OUTPUT  ( 'SG::AuxVectorBase' , 'StoreGateSvc+cvec' ) 
    o OUTPUT  ( 'SG::AuxVectorBase' , 'StoreGateSvc+cvec.dtest' ) 
  xAODTestWriteCInfo
    o INPUT   ( 'DMTest::CVec' , 'StoreGateSvc+cvec' ) 
    o INPUT   ( 'EventInfo' , 'StoreGateSvc+McEventInfo' ) 
    o OUTPUT  ( 'DMTest::C' , 'StoreGateSvc+cinfo' ) 
    o OUTPUT  ( 'SG::AuxElement' , 'StoreGateSvc+cinfo' ) 
  xAODTestWrite
    o INPUT   ( 'DMTest::CVec' , 'StoreGateSvc+cvec' ) 
    o OUTPUT  ( 'DMTest::CVec' , 'StoreGateSvc+ctrig' ) 
    o OUTPUT  ( 'DMTest::CVecWithData' , 'StoreGateSvc+cvecWD' ) 
    o OUTPUT  ( 'DMTest::GVec' , 'StoreGateSvc+gvec' ) 
    o OUTPUT  ( 'SG::AuxVectorBase' , 'StoreGateSvc+ctrig' ) 
    o OUTPUT  ( 'SG::AuxVectorBase' , 'StoreGateSvc+gvec' ) 
  xAODTestDecor
    o INPUT   ( 'DMTest::C' , 'StoreGateSvc+cinfo' ) 
    o INPUT   ( 'DMTest::CVec' , 'StoreGateSvc+ctrig' ) 
    o INPUT   ( 'DMTest::CVec' , 'StoreGateSvc+cvec' ) 
    o INPUT   ( 'EventInfo' , 'StoreGateSvc+McEventInfo' ) 
    o INPUT   ( 'SG::AuxElement' , 'StoreGateSvc+cinfo' ) 
    o OUTPUT  ( 'DMTest::C' , 'StoreGateSvc+cinfo.dInt1' ) 
    o OUTPUT  ( 'DMTest::CVec' , 'StoreGateSvc+ctrig.dInt1' ) 
    o OUTPUT  ( 'DMTest::CVec' , 'StoreGateSvc+cvec.dInt1' ) 
    o OUTPUT  ( 'SG::AuxElement' , 'StoreGateSvc+cinfo.dInt1' ) 
    o OUTPUT  ( 'SG::AuxElement' , 'StoreGateSvc+cinfo.dInt1Base' ) 
    o OUTPUT  ( 'SG::AuxVectorBase' , 'StoreGateSvc+ctrig.dInt1' ) 
    o OUTPUT  ( 'SG::AuxVectorBase' , 'StoreGateSvc+cvec.dInt1' ) 
  xAODTestReadDecor
    o INPUT   ( 'DMTest::CVec' , 'StoreGateSvc+cvec.dInt1' ) 
    o INPUT   ( 'SG::AuxElement' , 'StoreGateSvc+cinfo.dInt1' ) 
    o INPUT   ( 'SG::AuxElement' , 'StoreGateSvc+cinfo.dInt1Base' ) 
  xAODTestShallowCopy
    o INPUT   ( 'DMTest::C' , 'StoreGateSvc+cinfo' ) 
    o INPUT   ( 'DMTest::C' , 'StoreGateSvc+cinfo.dInt1' ) 
    o INPUT   ( 'DMTest::CVec' , 'StoreGateSvc+cvec' ) 
    o INPUT   ( 'DMTest::CVec' , 'StoreGateSvc+cvec.dInt1' ) 
    o OUTPUT  ( 'DMTest::C' , 'StoreGateSvc+scopy_cinfo' ) 
    o OUTPUT  ( 'DMTest::C' , 'StoreGateSvc+scopy_cinfo.anInt10' ) 
    o OUTPUT  ( 'DMTest::C' , 'StoreGateSvc+scopy_cinfo.dInt1' ) 
    o OUTPUT  ( 'DMTest::CVec' , 'StoreGateSvc+dInt1' ) 
    o OUTPUT  ( 'DMTest::CVec' , 'StoreGateSvc+scopy_cvec' ) 
    o OUTPUT  ( 'DMTest::CVec' , 'StoreGateSvc+scopy_cvec.anInt10' ) 
    o OUTPUT  ( 'DMTest::CVec' , 'StoreGateSvc+scopy_cvec.dInt1' ) 
    o OUTPUT  ( 'DMTest::CVecWithData' , 'StoreGateSvc+dInt1' ) 
    o OUTPUT  ( 'SG::AuxElement' , 'StoreGateSvc+scopy_cinfo' ) 
    o OUTPUT  ( 'SG::AuxElement' , 'StoreGateSvc+scopy_cinfo.anInt10' ) 
    o OUTPUT  ( 'SG::AuxElement' , 'StoreGateSvc+scopy_cinfo.dInt1' ) 
    o OUTPUT  ( 'SG::AuxVectorBase' , 'StoreGateSvc+dInt1' ) 
    o OUTPUT  ( 'SG::AuxVectorBase' , 'StoreGateSvc+scopy_cvec' ) 
    o OUTPUT  ( 'SG::AuxVectorBase' , 'StoreGateSvc+scopy_cvec.anInt10' ) 
    o OUTPUT  ( 'SG::AuxVectorBase' , 'StoreGateSvc+scopy_cvec.dInt1' ) 
  xAODTestReadDecorSCopy
    o INPUT   ( 'DMTest::CVec' , 'StoreGateSvc+scopy_cvec.dInt1' ) 
    o INPUT   ( 'SG::AuxElement' , 'StoreGateSvc+scopy_cinfo.dInt1' ) 
    o INPUT   ( 'SG::AuxElement' , 'StoreGateSvc+scopy_cinfo.dInt1Base' ) 
  EndIncFiringAlg
      none
  IncidentProcAlg2
      none
  EndAlgorithmsFiringAlg
      none
  IncidentProcAlg3
      none
AvalancheSchedulerSvc                                        0    INFO Will attribute the following unmet INPUT dependencies to "SGInputLoader/SGInputLoader" Algorithm
   o  ( 'EventInfo' , 'StoreGateSvc+McEventInfo' )     required by Algorithm: 
       * xAODMaker::EventInfoCnvAlg
       * xAODTestDecor
       * xAODTestWriteCInfo
   o  ( 'SG::AuxElement' , 'StoreGateSvc+scopy_cinfo.dInt1Base' )     required by Algorithm: 
       * xAODTestReadDecorSCopy
PrecedenceSvc                                                0    INFO Assembling CF and DF task precedence rules
PrecedenceSvc                                                0    INFO PrecedenceSvc initialized successfully
AvalancheSchedulerSvc                                        0    INFO Concurrency level information:
AvalancheSchedulerSvc                                        0    INFO  o Number of events in flight: 1
AvalancheSchedulerSvc                                        0    INFO  o TBB thread pool size:  'ThreadPoolSize':1
AvalancheSchedulerSvc                                        0    INFO Task scheduling settings:
AvalancheSchedulerSvc                                        0    INFO  o Avalanche generation mode: disabled
AvalancheSchedulerSvc                                        0    INFO  o Preemptive scheduling of CPU-blocking tasks: disabled
AvalancheSchedulerSvc                                        0    INFO  o Scheduling of condition tasks: disabled
EventSelector                                                0    INFO  Enter McEventSelector Initialization 
AthenaHiveEventLoopMgr                                       0    INFO Setup EventSelector service EventSelector
ApplicationMgr                                               0    INFO Application Manager Initialized successfully
ApplicationMgr                                               0    INFO Application Manager Started successfully
AthenaHiveEventLoopMgr                                       0    INFO Starting loop on events
EventPersistencySvc                                    0     0    INFO Added successfully Conversion service:McCnvSvc
AthenaHiveEventLoopMgr                                 0     0    INFO   ===>>>  start of run 0    <<<===
AthenaHiveEventLoopMgr                                 0     0    INFO   ===>>>  start processing event #0, run #0 on slot 0,  0 events processed so far  <<<===
ClassIDSvc                                             0     0    INFO  getRegistryEntries: read 110 CLIDRegistry entries for module ALL
SGInputLoader                                          0     0 WARNING unable to find proxy for  ( 'SG::AuxElement' , 'StoreGateSvc+scopy_cinfo.dInt1Base' ) 
xAODTestReadDecor                                      0     0    INFO cvec.dInt1: 401 402 403 404 405 406 407 408 409 410
xAODTestReadDecor                                      0     0    INFO cinfo.dInt1: 3000
xAODTestReadDecor                                      0     0    INFO cinfo.dInt1Base: 3001
xAODTestReadDecor                                      0     0    INFO cinfo.dInt1: 3000
xAODTestReadDecorSCopy                                 0     0    INFO scopy_cvec.dInt1: 401 402 403 404 405 406 407 408 409 410
xAODTestReadDecorSCopy                                 0     0    INFO scopy_cinfo.dInt1: 3000
xAODTestReadDecorSCopy                                 0     0    INFO scopy_cinfo.dInt1Base: 3001
xAODTestReadDecorSCopy                                 0     0    INFO scopy_cinfo.dInt1: 3000
AthenaHiveEventLoopMgr                                 0     0    INFO   ===>>>  done processing event #0, run #0 on slot 0,  1 events processed so far  <<<===
AthenaHiveEventLoopMgr                                 1     0    INFO   ===>>>  start processing event #1, run #0 on slot 0,  1 events processed so far  <<<===
SGInputLoader                                          1     0 WARNING unable to find proxy for  ( 'SG::AuxElement' , 'StoreGateSvc+scopy_cinfo.dInt1Base' ) 
xAODTestReadDecor                                      1     0    INFO cvec.dInt1: 801 802 803 804 805 806 807 808 809 810
xAODTestReadDecor                                      1     0    INFO cinfo.dInt1: 6000
xAODTestReadDecor                                      1     0    INFO cinfo.dInt1Base: 6001
xAODTestReadDecor                                      1     0    INFO cinfo.dInt1: 6000
xAODTestReadDecorSCopy                                 1     0    INFO scopy_cvec.dInt1: 801 802 803 804 805 806 807 808 809 810
xAODTestReadDecorSCopy                                 1     0    INFO scopy_cinfo.dInt1: 6000
xAODTestReadDecorSCopy                                 1     0    INFO scopy_cinfo.dInt1Base: 6001
xAODTestReadDecorSCopy                                 1     0    INFO scopy_cinfo.dInt1: 6000
AthenaHiveEventLoopMgr                                 1     0    INFO   ===>>>  done processing event #1, run #0 on slot 0,  2 events processed so far  <<<===
AthenaHiveEventLoopMgr                                 2     0    INFO   ===>>>  start processing event #2, run #0 on slot 0,  2 events processed so far  <<<===
SGInputLoader                                          2     0 WARNING unable to find proxy for  ( 'SG::AuxElement' , 'StoreGateSvc+scopy_cinfo.dInt1Base' ) 
xAODTestReadDecor                                      2     0    INFO cvec.dInt1: 1201 1202 1203 1204 1205 1206 1207 1208 1209 1210
xAODTestReadDecor                                      2     0    INFO cinfo.dInt1: 9000
xAODTestReadDecor                                      2     0    INFO cinfo.dInt1Base: 9001
xAODTestReadDecor                                      2     0    INFO cinfo.dInt1: 9000
xAODTestReadDecorSCopy                                 2     0    INFO scopy_cvec.dInt1: 1201 1202 1203 1204 1205 1206 1207 1208 1209 1210
xAODTestReadDecorSCopy                                 2     0    INFO scopy_cinfo.dInt1: 9000
xAODTestReadDecorSCopy                                 2     0    INFO scopy_cinfo.dInt1Base: 9001
xAODTestReadDecorSCopy                                 2     0    INFO scopy_cinfo.dInt1: 9000
AthenaHiveEventLoopMgr                                 2     0    INFO   ===>>>  done processing event #2, run #0 on slot 0,  3 events processed so far  <<<===
AthenaHiveEventLoopMgr                                 3     0    INFO   ===>>>  start processing event #3, run #0 on slot 0,  3 events processed so far  <<<===
SGInputLoader                                          3     0 WARNING unable to find proxy for  ( 'SG::AuxElement' , 'StoreGateSvc+scopy_cinfo.dInt1Base' ) 
xAODTestReadDecor                                      3     0    INFO cvec.dInt1: 1601 1602 1603 1604 1605 1606 1607 1608 1609 1610
xAODTestReadDecor                                      3     0    INFO cinfo.dInt1: 12000
xAODTestReadDecor                                      3     0    INFO cinfo.dInt1Base: 12001
xAODTestReadDecor                                      3     0    INFO cinfo.dInt1: 12000
xAODTestReadDecorSCopy                                 3     0    INFO scopy_cvec.dInt1: 1601 1602 1603 1604 1605 1606 1607 1608 1609 1610
xAODTestReadDecorSCopy                                 3     0    INFO scopy_cinfo.dInt1: 12000
xAODTestReadDecorSCopy                                 3     0    INFO scopy_cinfo.dInt1Base: 12001
xAODTestReadDecorSCopy                                 3     0    INFO scopy_cinfo.dInt1: 12000
AthenaHiveEventLoopMgr                                 3     0    INFO   ===>>>  done processing event #3, run #0 on slot 0,  4 events processed so far  <<<===
AthenaHiveEventLoopMgr                                 4     0    INFO   ===>>>  start processing event #4, run #0 on slot 0,  4 events processed so far  <<<===
SGInputLoader                                          4     0 WARNING unable to find proxy for  ( 'SG::AuxElement' , 'StoreGateSvc+scopy_cinfo.dInt1Base' ) 
xAODTestReadDecor                                      4     0    INFO cvec.dInt1:
xAODTestReadDecor                                      4     0    INFO cinfo.dInt1: 15000
xAODTestReadDecor                                      4     0    INFO cinfo.dInt1Base: 15001
xAODTestReadDecor                                      4     0    INFO cinfo.dInt1: 15000
xAODTestReadDecorSCopy                                 4     0    INFO scopy_cvec.dInt1:
xAODTestReadDecorSCopy                                 4     0    INFO scopy_cinfo.dInt1: 15000
xAODTestReadDecorSCopy                                 4     0    INFO scopy_cinfo.dInt1Base: 15001
xAODTestReadDecorSCopy                                 4     0    INFO scopy_cinfo.dInt1: 15000
AthenaHiveEventLoopMgr                                 4     0    INFO   ===>>>  done processing event #4, run #0 on slot 0,  5 events processed so far  <<<===
AthenaHiveEventLoopMgr                                 5     0    INFO   ===>>>  start processing event #5, run #0 on slot 0,  5 events processed so far  <<<===
SGInputLoader                                          5     0 WARNING unable to find proxy for  ( 'SG::AuxElement' , 'StoreGateSvc+scopy_cinfo.dInt1Base' ) 
xAODTestReadDecor                                      5     0    INFO cvec.dInt1: 2401 2402 2403 2404 2405 2406 2407 2408 2409 2410
xAODTestReadDecor                                      5     0    INFO cinfo.dInt1: 18000
xAODTestReadDecor                                      5     0    INFO cinfo.dInt1Base: 18001
xAODTestReadDecor                                      5     0    INFO cinfo.dInt1: 18000
xAODTestReadDecorSCopy                                 5     0    INFO scopy_cvec.dInt1: 2401 2402 2403 2404 2405 2406 2407 2408 2409 2410
xAODTestReadDecorSCopy                                 5     0    INFO scopy_cinfo.dInt1: 18000
xAODTestReadDecorSCopy                                 5     0    INFO scopy_cinfo.dInt1Base: 18001
xAODTestReadDecorSCopy                                 5     0    INFO scopy_cinfo.dInt1: 18000
AthenaHiveEventLoopMgr                                 5     0    INFO   ===>>>  done processing event #5, run #0 on slot 0,  6 events processed so far  <<<===
AthenaHiveEventLoopMgr                                 6     0    INFO   ===>>>  start processing event #6, run #0 on slot 0,  6 events processed so far  <<<===
SGInputLoader                                          6     0 WARNING unable to find proxy for  ( 'SG::AuxElement' , 'StoreGateSvc+scopy_cinfo.dInt1Base' ) 
xAODTestReadDecor                                      6     0    INFO cvec.dInt1: 2801 2802 2803 2804 2805 2806 2807 2808 2809 2810
xAODTestReadDecor                                      6     0    INFO cinfo.dInt1: 21000
xAODTestReadDecor                                      6     0    INFO cinfo.dInt1Base: 21001
xAODTestReadDecor                                      6     0    INFO cinfo.dInt1: 21000
xAODTestReadDecorSCopy                                 6     0    INFO scopy_cvec.dInt1: 2801 2802 2803 2804 2805 2806 2807 2808 2809 2810
xAODTestReadDecorSCopy                                 6     0    INFO scopy_cinfo.dInt1: 21000
xAODTestReadDecorSCopy                                 6     0    INFO scopy_cinfo.dInt1Base: 21001
xAODTestReadDecorSCopy                                 6     0    INFO scopy_cinfo.dInt1: 21000
AthenaHiveEventLoopMgr                                 6     0    INFO   ===>>>  done processing event #6, run #0 on slot 0,  7 events processed so far  <<<===
AthenaHiveEventLoopMgr                                 7     0    INFO   ===>>>  start processing event #7, run #0 on slot 0,  7 events processed so far  <<<===
SGInputLoader                                          7     0 WARNING unable to find proxy for  ( 'SG::AuxElement' , 'StoreGateSvc+scopy_cinfo.dInt1Base' ) 
xAODTestReadDecor                                      7     0    INFO cvec.dInt1: 3201 3202 3203 3204 3205 3206 3207 3208 3209 3210
xAODTestReadDecor                                      7     0    INFO cinfo.dInt1: 24000
xAODTestReadDecor                                      7     0    INFO cinfo.dInt1Base: 24001
xAODTestReadDecor                                      7     0    INFO cinfo.dInt1: 24000
xAODTestReadDecorSCopy                                 7     0    INFO scopy_cvec.dInt1: 3201 3202 3203 3204 3205 3206 3207 3208 3209 3210
xAODTestReadDecorSCopy                                 7     0    INFO scopy_cinfo.dInt1: 24000
xAODTestReadDecorSCopy                                 7     0    INFO scopy_cinfo.dInt1Base: 24001
xAODTestReadDecorSCopy                                 7     0    INFO scopy_cinfo.dInt1: 24000
AthenaHiveEventLoopMgr                                 7     0    INFO   ===>>>  done processing event #7, run #0 on slot 0,  8 events processed so far  <<<===
AthenaHiveEventLoopMgr                                 8     0    INFO   ===>>>  start processing event #8, run #0 on slot 0,  8 events processed so far  <<<===
SGInputLoader                                          8     0 WARNING unable to find proxy for  ( 'SG::AuxElement' , 'StoreGateSvc+scopy_cinfo.dInt1Base' ) 
xAODTestReadDecor                                      8     0    INFO cvec.dInt1: 3601 3602 3603 3604 3605 3606 3607 3608 3609 3610
xAODTestReadDecor                                      8     0    INFO cinfo.dInt1: 27000
xAODTestReadDecor                                      8     0    INFO cinfo.dInt1Base: 27001
xAODTestReadDecor                                      8     0    INFO cinfo.dInt1: 27000
xAODTestReadDecorSCopy                                 8     0    INFO scopy_cvec.dInt1: 3601 3602 3603 3604 3605 3606 3607 3608 3609 3610
xAODTestReadDecorSCopy                                 8     0    INFO scopy_cinfo.dInt1: 27000
xAODTestReadDecorSCopy                                 8     0    INFO scopy_cinfo.dInt1Base: 27001
xAODTestReadDecorSCopy                                 8     0    INFO scopy_cinfo.dInt1: 27000
AthenaHiveEventLoopMgr                                 8     0    INFO   ===>>>  done processing event #8, run #0 on slot 0,  9 events processed so far  <<<===
AthenaHiveEventLoopMgr                                 9     0    INFO   ===>>>  start processing event #9, run #0 on slot 0,  9 events processed so far  <<<===
SGInputLoader                                          9     0 WARNING unable to find proxy for  ( 'SG::AuxElement' , 'StoreGateSvc+scopy_cinfo.dInt1Base' ) 
xAODTestReadDecor                                      9     0    INFO cvec.dInt1: 4001 4002 4003 4004 4005 4006 4007 4008 4009 4010
xAODTestReadDecor                                      9     0    INFO cinfo.dInt1: 30000
xAODTestReadDecor                                      9     0    INFO cinfo.dInt1Base: 30001
xAODTestReadDecor                                      9     0    INFO cinfo.dInt1: 30000
xAODTestReadDecorSCopy                                 9     0    INFO scopy_cvec.dInt1: 4001 4002 4003 4004 4005 4006 4007 4008 4009 4010
xAODTestReadDecorSCopy                                 9     0    INFO scopy_cinfo.dInt1: 30000
xAODTestReadDecorSCopy                                 9     0    INFO scopy_cinfo.dInt1Base: 30001
xAODTestReadDecorSCopy                                 9     0    INFO scopy_cinfo.dInt1: 30000
AthenaHiveEventLoopMgr                                 9     0    INFO   ===>>>  done processing event #9, run #0 on slot 0,  10 events processed so far  <<<===
AthenaHiveEventLoopMgr                                10     0    INFO   ===>>>  start processing event #10, run #0 on slot 0,  10 events processed so far  <<<===
SGInputLoader                                         10     0 WARNING unable to find proxy for  ( 'SG::AuxElement' , 'StoreGateSvc+scopy_cinfo.dInt1Base' ) 
xAODTestReadDecor                                     10     0    INFO cvec.dInt1: 4401 4402 4403 4404 4405 4406 4407 4408 4409 4410
xAODTestReadDecor                                     10     0    INFO cinfo.dInt1: 33000
xAODTestReadDecor                                     10     0    INFO cinfo.dInt1Base: 33001
xAODTestReadDecor                                     10     0    INFO cinfo.dInt1: 33000
xAODTestReadDecorSCopy                                10     0    INFO scopy_cvec.dInt1: 4401 4402 4403 4404 4405 4406 4407 4408 4409 4410
xAODTestReadDecorSCopy                                10     0    INFO scopy_cinfo.dInt1: 33000
xAODTestReadDecorSCopy                                10     0    INFO scopy_cinfo.dInt1Base: 33001
xAODTestReadDecorSCopy                                10     0    INFO scopy_cinfo.dInt1: 33000
AthenaHiveEventLoopMgr                                10     0    INFO   ===>>>  done processing event #10, run #0 on slot 0,  11 events processed so far  <<<===
AthenaHiveEventLoopMgr                                11     0    INFO   ===>>>  start processing event #11, run #0 on slot 0,  11 events processed so far  <<<===
SGInputLoader                                         11     0 WARNING unable to find proxy for  ( 'SG::AuxElement' , 'StoreGateSvc+scopy_cinfo.dInt1Base' ) 
xAODTestReadDecor                                     11     0    INFO cvec.dInt1: 4801 4802 4803 4804 4805 4806 4807 4808 4809 4810
xAODTestReadDecor                                     11     0    INFO cinfo.dInt1: 36000
xAODTestReadDecor                                     11     0    INFO cinfo.dInt1Base: 36001
xAODTestReadDecor                                     11     0    INFO cinfo.dInt1: 36000
xAODTestReadDecorSCopy                                11     0    INFO scopy_cvec.dInt1: 4801 4802 4803 4804 4805 4806 4807 4808 4809 4810
xAODTestReadDecorSCopy                                11     0    INFO scopy_cinfo.dInt1: 36000
xAODTestReadDecorSCopy                                11     0    INFO scopy_cinfo.dInt1Base: 36001
xAODTestReadDecorSCopy                                11     0    INFO scopy_cinfo.dInt1: 36000
AthenaHiveEventLoopMgr                                11     0    INFO   ===>>>  done processing event #11, run #0 on slot 0,  12 events processed so far  <<<===
AthenaHiveEventLoopMgr                                12     0    INFO   ===>>>  start processing event #12, run #0 on slot 0,  12 events processed so far  <<<===
SGInputLoader                                         12     0 WARNING unable to find proxy for  ( 'SG::AuxElement' , 'StoreGateSvc+scopy_cinfo.dInt1Base' ) 
xAODTestReadDecor                                     12     0    INFO cvec.dInt1: 5201 5202 5203 5204 5205 5206 5207 5208 5209 5210
xAODTestReadDecor                                     12     0    INFO cinfo.dInt1: 39000
xAODTestReadDecor                                     12     0    INFO cinfo.dInt1Base: 39001
xAODTestReadDecor                                     12     0    INFO cinfo.dInt1: 39000
xAODTestReadDecorSCopy                                12     0    INFO scopy_cvec.dInt1: 5201 5202 5203 5204 5205 5206 5207 5208 5209 5210
xAODTestReadDecorSCopy                                12     0    INFO scopy_cinfo.dInt1: 39000
xAODTestReadDecorSCopy                                12     0    INFO scopy_cinfo.dInt1Base: 39001
xAODTestReadDecorSCopy                                12     0    INFO scopy_cinfo.dInt1: 39000
AthenaHiveEventLoopMgr                                12     0    INFO   ===>>>  done processing event #12, run #0 on slot 0,  13 events processed so far  <<<===
AthenaHiveEventLoopMgr                                13     0    INFO   ===>>>  start processing event #13, run #0 on slot 0,  13 events processed so far  <<<===
SGInputLoader                                         13     0 WARNING unable to find proxy for  ( 'SG::AuxElement' , 'StoreGateSvc+scopy_cinfo.dInt1Base' ) 
xAODTestReadDecor                                     13     0    INFO cvec.dInt1: 5601 5602 5603 5604 5605 5606 5607 5608 5609 5610
xAODTestReadDecor                                     13     0    INFO cinfo.dInt1: 42000
xAODTestReadDecor                                     13     0    INFO cinfo.dInt1Base: 42001
xAODTestReadDecor                                     13     0    INFO cinfo.dInt1: 42000
xAODTestReadDecorSCopy                                13     0    INFO scopy_cvec.dInt1: 5601 5602 5603 5604 5605 5606 5607 5608 5609 5610
xAODTestReadDecorSCopy                                13     0    INFO scopy_cinfo.dInt1: 42000
xAODTestReadDecorSCopy                                13     0    INFO scopy_cinfo.dInt1Base: 42001
xAODTestReadDecorSCopy                                13     0    INFO scopy_cinfo.dInt1: 42000
AthenaHiveEventLoopMgr                                13     0    INFO   ===>>>  done processing event #13, run #0 on slot 0,  14 events processed so far  <<<===
AthenaHiveEventLoopMgr                                14     0    INFO   ===>>>  start processing event #14, run #0 on slot 0,  14 events processed so far  <<<===
SGInputLoader                                         14     0 WARNING unable to find proxy for  ( 'SG::AuxElement' , 'StoreGateSvc+scopy_cinfo.dInt1Base' ) 
xAODTestReadDecor                                     14     0    INFO cvec.dInt1: 6001 6002 6003 6004 6005 6006 6007 6008 6009 6010
xAODTestReadDecor                                     14     0    INFO cinfo.dInt1: 45000
xAODTestReadDecor                                     14     0    INFO cinfo.dInt1Base: 45001
xAODTestReadDecor                                     14     0    INFO cinfo.dInt1: 45000
xAODTestReadDecorSCopy                                14     0    INFO scopy_cvec.dInt1: 6001 6002 6003 6004 6005 6006 6007 6008 6009 6010
xAODTestReadDecorSCopy                                14     0    INFO scopy_cinfo.dInt1: 45000
xAODTestReadDecorSCopy                                14     0    INFO scopy_cinfo.dInt1Base: 45001
xAODTestReadDecorSCopy                                14     0    INFO scopy_cinfo.dInt1: 45000
AthenaHiveEventLoopMgr                                14     0    INFO   ===>>>  done processing event #14, run #0 on slot 0,  15 events processed so far  <<<===
AthenaHiveEventLoopMgr                                15     0    INFO   ===>>>  start processing event #15, run #0 on slot 0,  15 events processed so far  <<<===
SGInputLoader                                         15     0 WARNING unable to find proxy for  ( 'SG::AuxElement' , 'StoreGateSvc+scopy_cinfo.dInt1Base' ) 
xAODTestReadDecor                                     15     0    INFO cvec.dInt1: 6401 6402 6403 6404 6405 6406 6407 6408 6409 6410
xAODTestReadDecor                                     15     0    INFO cinfo.dInt1: 48000
xAODTestReadDecor                                     15     0    INFO cinfo.dInt1Base: 48001
xAODTestReadDecor                                     15     0    INFO cinfo.dInt1: 48000
xAODTestReadDecorSCopy                                15     0    INFO scopy_cvec.dInt1: 6401 6402 6403 6404 6405 6406 6407 6408 6409 6410
xAODTestReadDecorSCopy                                15     0    INFO scopy_cinfo.dInt1: 48000
xAODTestReadDecorSCopy                                15     0    INFO scopy_cinfo.dInt1Base: 48001
xAODTestReadDecorSCopy                                15     0    INFO scopy_cinfo.dInt1: 48000
AthenaHiveEventLoopMgr                                15     0    INFO   ===>>>  done processing event #15, run #0 on slot 0,  16 events processed so far  <<<===
AthenaHiveEventLoopMgr                                16     0    INFO   ===>>>  start processing event #16, run #0 on slot 0,  16 events processed so far  <<<===
SGInputLoader                                         16     0 WARNING unable to find proxy for  ( 'SG::AuxElement' , 'StoreGateSvc+scopy_cinfo.dInt1Base' ) 
xAODTestReadDecor                                     16     0    INFO cvec.dInt1: 6801 6802 6803 6804 6805 6806 6807 6808 6809 6810
xAODTestReadDecor                                     16     0    INFO cinfo.dInt1: 51000
xAODTestReadDecor                                     16     0    INFO cinfo.dInt1Base: 51001
xAODTestReadDecor                                     16     0    INFO cinfo.dInt1: 51000
xAODTestReadDecorSCopy                                16     0    INFO scopy_cvec.dInt1: 6801 6802 6803 6804 6805 6806 6807 6808 6809 6810
xAODTestReadDecorSCopy                                16     0    INFO scopy_cinfo.dInt1: 51000
xAODTestReadDecorSCopy                                16     0    INFO scopy_cinfo.dInt1Base: 51001
xAODTestReadDecorSCopy                                16     0    INFO scopy_cinfo.dInt1: 51000
AthenaHiveEventLoopMgr                                16     0    INFO   ===>>>  done processing event #16, run #0 on slot 0,  17 events processed so far  <<<===
AthenaHiveEventLoopMgr                                17     0    INFO   ===>>>  start processing event #17, run #0 on slot 0,  17 events processed so far  <<<===
SGInputLoader                                         17     0 WARNING unable to find proxy for  ( 'SG::AuxElement' , 'StoreGateSvc+scopy_cinfo.dInt1Base' ) 
xAODTestReadDecor                                     17     0    INFO cvec.dInt1: 7201 7202 7203 7204 7205 7206 7207 7208 7209 7210
xAODTestReadDecor                                     17     0    INFO cinfo.dInt1: 54000
xAODTestReadDecor                                     17     0    INFO cinfo.dInt1Base: 54001
xAODTestReadDecor                                     17     0    INFO cinfo.dInt1: 54000
xAODTestReadDecorSCopy                                17     0    INFO scopy_cvec.dInt1: 7201 7202 7203 7204 7205 7206 7207 7208 7209 7210
xAODTestReadDecorSCopy                                17     0    INFO scopy_cinfo.dInt1: 54000
xAODTestReadDecorSCopy                                17     0    INFO scopy_cinfo.dInt1Base: 54001
xAODTestReadDecorSCopy                                17     0    INFO scopy_cinfo.dInt1: 54000
AthenaHiveEventLoopMgr                                17     0    INFO   ===>>>  done processing event #17, run #0 on slot 0,  18 events processed so far  <<<===
AthenaHiveEventLoopMgr                                18     0    INFO   ===>>>  start processing event #18, run #0 on slot 0,  18 events processed so far  <<<===
SGInputLoader                                         18     0 WARNING unable to find proxy for  ( 'SG::AuxElement' , 'StoreGateSvc+scopy_cinfo.dInt1Base' ) 
xAODTestReadDecor                                     18     0    INFO cvec.dInt1: 7601 7602 7603 7604 7605 7606 7607 7608 7609 7610
xAODTestReadDecor                                     18     0    INFO cinfo.dInt1: 57000
xAODTestReadDecor                                     18     0    INFO cinfo.dInt1Base: 57001
xAODTestReadDecor                                     18     0    INFO cinfo.dInt1: 57000
xAODTestReadDecorSCopy                                18     0    INFO scopy_cvec.dInt1: 7601 7602 7603 7604 7605 7606 7607 7608 7609 7610
xAODTestReadDecorSCopy                                18     0    INFO scopy_cinfo.dInt1: 57000
xAODTestReadDecorSCopy                                18     0    INFO scopy_cinfo.dInt1Base: 57001
xAODTestReadDecorSCopy                                18     0    INFO scopy_cinfo.dInt1: 57000
AthenaHiveEventLoopMgr                                18     0    INFO   ===>>>  done processing event #18, run #0 on slot 0,  19 events processed so far  <<<===
AthenaHiveEventLoopMgr                                19     0    INFO   ===>>>  start processing event #19, run #0 on slot 0,  19 events processed so far  <<<===
SGInputLoader                                         19     0 WARNING unable to find proxy for  ( 'SG::AuxElement' , 'StoreGateSvc+scopy_cinfo.dInt1Base' ) 
xAODTestReadDecor                                     19     0    INFO cvec.dInt1: 8001 8002 8003 8004 8005 8006 8007 8008 8009 8010
xAODTestReadDecor                                     19     0    INFO cinfo.dInt1: 60000
xAODTestReadDecor                                     19     0    INFO cinfo.dInt1Base: 60001
xAODTestReadDecor                                     19     0    INFO cinfo.dInt1: 60000
xAODTestReadDecorSCopy                                19     0    INFO scopy_cvec.dInt1: 8001 8002 8003 8004 8005 8006 8007 8008 8009 8010
xAODTestReadDecorSCopy                                19     0    INFO scopy_cinfo.dInt1: 60000
xAODTestReadDecorSCopy                                19     0    INFO scopy_cinfo.dInt1Base: 60001
xAODTestReadDecorSCopy                                19     0    INFO scopy_cinfo.dInt1: 60000
AthenaHiveEventLoopMgr                                19     0    INFO   ===>>>  done processing event #19, run #0 on slot 0,  20 events processed so far  <<<===
AthenaHiveEventLoopMgr                                19     0    INFO ---> Loop Finished (seconds): 0.274228
ApplicationMgr                                                    INFO Application Manager Stopped successfully
SGInputLoader                                                     INFO Finalizing SGInputLoader...
AvalancheSchedulerSvc                                             INFO Joining Scheduler thread
EventDataSvc                                                      INFO Finalizing EventDataSvc
AthDictLoaderSvc                                                  INFO in finalize...
ToolSvc                                                           INFO Removing all tools created by ToolSvc
ApplicationMgr                                                    INFO Application Manager Finalized successfully
ApplicationMgr                                                    INFO Application Manager Terminated successfully
Py:Athena            INFO leaving with code 0: "successful run"
